<svg xmlns="http://www.w3.org/2000/svg" width="26" height="66" viewBox="0 0 26 66">
    <path fill="none" fill-rule="evenodd" stroke="#DEDEDD" stroke-linecap="round" stroke-width="4" d="M24 2L3 33l21 31"/>
</svg>
